{
    "boilerplate_name": "",
    "cms_content_cache_duration": 60,
    "cms_menus_cache_duration": 3600,
    "cms_templates": "[[\"avana\\landingpage.html\", \"LandingPage\"]]",
    "permissions_enabled": true
}